mc23_13p6TeV.802067.Py8EG_A14NNPDF23LO_jetjet_JZ1_4jets15_2bjets.deriv.DAOD_PHYS.e8564_s4162_r14622_p6266
mc23_13p6TeV.802067.Py8EG_A14NNPDF23LO_jetjet_JZ1_4jets15_2bjets.deriv.DAOD_PHYS.e8564_s4159_r15530_p6026
mc23_13p6TeV.800285.Py8EG_A14NNPDF23LO_jetjet_JZ2_4jets15_2bjets.deriv.DAOD_PHYS.e8564_s4162_r14622_p6266
mc23_13p6TeV.800285.Py8EG_A14NNPDF23LO_jetjet_JZ2_4jets15_2bjets.deriv.DAOD_PHYS.e8564_s4159_r15530_p6026
mc23_13p6TeV.800286.Py8EG_A14NNPDF23LO_jetjet_JZ3_4jets15_2bjets.deriv.DAOD_PHYS.e8564_s4162_r14622_p6266
mc23_13p6TeV.800286.Py8EG_A14NNPDF23LO_jetjet_JZ3_4jets15_2bjets.deriv.DAOD_PHYS.e8564_s4159_r15530_p6026
mc23_13p6TeV.800287.Py8EG_A14NNPDF23LO_jetjet_JZ4_4jets15_2bjets.deriv.DAOD_PHYS.e8564_s4162_r14622_p6266
mc23_13p6TeV.800287.Py8EG_A14NNPDF23LO_jetjet_JZ4_4jets15_2bjets.deriv.DAOD_PHYS.e8564_s4159_r15530_p6026
mc23_13p6TeV.802068.Py8EG_A14NNPDF23LO_jetjet_JZ5_4jets15_2bjets.deriv.DAOD_PHYS.e8564_s4162_r14622_p6266
mc23_13p6TeV.802068.Py8EG_A14NNPDF23LO_jetjet_JZ5_4jets15_2bjets.deriv.DAOD_PHYS.e8564_s4159_r15530_p6026
mc23_13p6TeV.802069.Py8EG_A14NNPDF23LO_jetjet_JZ6_4jets15_2bjets.deriv.DAOD_PHYS.e8564_s4162_r14622_p6266
mc23_13p6TeV.802069.Py8EG_A14NNPDF23LO_jetjet_JZ6_4jets15_2bjets.deriv.DAOD_PHYS.e8564_s4159_r15530_p6026
mc23_13p6TeV.802070.Py8EG_A14NNPDF23LO_jetjet_JZ7_4jets15_2bjets.deriv.DAOD_PHYS.e8564_s4162_r14622_p6266
mc23_13p6TeV.802070.Py8EG_A14NNPDF23LO_jetjet_JZ7_4jets15_2bjets.deriv.DAOD_PHYS.e8564_s4159_r15530_p6026
mc23_13p6TeV.802071.Py8EG_A14NNPDF23LO_jetjet_JZ8_4jets15_2bjets.deriv.DAOD_PHYS.e8564_s4162_r14622_p6266
mc23_13p6TeV.802071.Py8EG_A14NNPDF23LO_jetjet_JZ8_4jets15_2bjets.deriv.DAOD_PHYS.e8564_s4159_r15530_p6026
mc23_13p6TeV.802072.Py8EG_A14NNPDF23LO_jetjet_JZ9incl_4jets15_2bjets.deriv.DAOD_PHYS.e8564_s4162_r14622_p6266
mc23_13p6TeV.802072.Py8EG_A14NNPDF23LO_jetjet_JZ9incl_4jets15_2bjets.deriv.DAOD_PHYS.e8564_s4159_r15530_p6026
