mc20_13TeV.800898.Py8EG_A14NNPDF23LO_XHS_X180_S050_HyySbb.deriv.DAOD_PHYSLITE.e8531_a907_r14859_p6266
mc20_13TeV.800898.Py8EG_A14NNPDF23LO_XHS_X180_S050_HyySbb.deriv.DAOD_PHYSLITE.e8531_a907_r14860_p6266
mc20_13TeV.800898.Py8EG_A14NNPDF23LO_XHS_X180_S050_HyySbb.deriv.DAOD_PHYSLITE.e8531_a907_r14861_p6266
mc20_13TeV.800899.Py8EG_A14NNPDF23LO_XHS_X200_S070_HyySbb.deriv.DAOD_PHYSLITE.e8531_a907_r14859_p6266
mc20_13TeV.800899.Py8EG_A14NNPDF23LO_XHS_X200_S070_HyySbb.deriv.DAOD_PHYSLITE.e8531_a907_r14860_p6266
mc20_13TeV.800899.Py8EG_A14NNPDF23LO_XHS_X200_S070_HyySbb.deriv.DAOD_PHYSLITE.e8531_a907_r14861_p6266
mc20_13TeV.800900.Py8EG_A14NNPDF23LO_XHS_X220_S090_HyySbb.deriv.DAOD_PHYSLITE.e8531_a907_r14859_p6266
mc20_13TeV.800900.Py8EG_A14NNPDF23LO_XHS_X220_S090_HyySbb.deriv.DAOD_PHYSLITE.e8531_a907_r14860_p6266
mc20_13TeV.800900.Py8EG_A14NNPDF23LO_XHS_X220_S090_HyySbb.deriv.DAOD_PHYSLITE.e8531_a907_r14861_p6266
mc20_13TeV.800901.Py8EG_A14NNPDF23LO_XHS_X230_S100_HyySbb.deriv.DAOD_PHYSLITE.e8531_a907_r14859_p6266
mc20_13TeV.800901.Py8EG_A14NNPDF23LO_XHS_X230_S100_HyySbb.deriv.DAOD_PHYSLITE.e8531_a907_r14860_p6266
mc20_13TeV.800901.Py8EG_A14NNPDF23LO_XHS_X230_S100_HyySbb.deriv.DAOD_PHYSLITE.e8531_a907_r14861_p6266
mc20_13TeV.800902.Py8EG_A14NNPDF23LO_XHS_X240_S110_HyySbb.deriv.DAOD_PHYSLITE.e8531_a907_r14859_p6266
mc20_13TeV.800902.Py8EG_A14NNPDF23LO_XHS_X240_S110_HyySbb.deriv.DAOD_PHYSLITE.e8531_a907_r14860_p6266
mc20_13TeV.800902.Py8EG_A14NNPDF23LO_XHS_X240_S110_HyySbb.deriv.DAOD_PHYSLITE.e8531_a907_r14861_p6266
mc20_13TeV.800903.Py8EG_A14NNPDF23LO_XHS_X250_S100_HyySbb.deriv.DAOD_PHYSLITE.e8531_a907_r14859_p6266
mc20_13TeV.800903.Py8EG_A14NNPDF23LO_XHS_X250_S100_HyySbb.deriv.DAOD_PHYSLITE.e8531_a907_r14860_p6266
mc20_13TeV.800903.Py8EG_A14NNPDF23LO_XHS_X250_S100_HyySbb.deriv.DAOD_PHYSLITE.e8531_a907_r14861_p6266
mc20_13TeV.800904.Py8EG_A14NNPDF23LO_XHS_X170_S030_HyySbb.deriv.DAOD_PHYSLITE.e8531_a907_r14859_p6266
mc20_13TeV.800904.Py8EG_A14NNPDF23LO_XHS_X170_S030_HyySbb.deriv.DAOD_PHYSLITE.e8531_a907_r14860_p6266
mc20_13TeV.800904.Py8EG_A14NNPDF23LO_XHS_X170_S030_HyySbb.deriv.DAOD_PHYSLITE.e8531_a907_r14861_p6266
mc20_13TeV.800905.Py8EG_A14NNPDF23LO_XHS_X190_S050_HyySbb.deriv.DAOD_PHYSLITE.e8531_a907_r14859_p6266
mc20_13TeV.800905.Py8EG_A14NNPDF23LO_XHS_X190_S050_HyySbb.deriv.DAOD_PHYSLITE.e8531_a907_r14860_p6266
mc20_13TeV.800905.Py8EG_A14NNPDF23LO_XHS_X190_S050_HyySbb.deriv.DAOD_PHYSLITE.e8531_a907_r14861_p6266
mc20_13TeV.800906.Py8EG_A14NNPDF23LO_XHS_X210_S070_HyySbb.deriv.DAOD_PHYSLITE.e8531_a907_r14859_p6266
mc20_13TeV.800906.Py8EG_A14NNPDF23LO_XHS_X210_S070_HyySbb.deriv.DAOD_PHYSLITE.e8531_a907_r14860_p6266
mc20_13TeV.800906.Py8EG_A14NNPDF23LO_XHS_X210_S070_HyySbb.deriv.DAOD_PHYSLITE.e8531_a907_r14861_p6266
mc20_13TeV.800907.Py8EG_A14NNPDF23LO_XHS_X230_S090_HyySbb.deriv.DAOD_PHYSLITE.e8531_a907_r14859_p6266
mc20_13TeV.800907.Py8EG_A14NNPDF23LO_XHS_X230_S090_HyySbb.deriv.DAOD_PHYSLITE.e8531_a907_r14860_p6266
mc20_13TeV.800907.Py8EG_A14NNPDF23LO_XHS_X230_S090_HyySbb.deriv.DAOD_PHYSLITE.e8531_a907_r14861_p6266
mc20_13TeV.800908.Py8EG_A14NNPDF23LO_XHS_X240_S100_HyySbb.deriv.DAOD_PHYSLITE.e8531_a907_r14859_p6266
mc20_13TeV.800908.Py8EG_A14NNPDF23LO_XHS_X240_S100_HyySbb.deriv.DAOD_PHYSLITE.e8531_a907_r14860_p6266
mc20_13TeV.800908.Py8EG_A14NNPDF23LO_XHS_X240_S100_HyySbb.deriv.DAOD_PHYSLITE.e8531_a907_r14861_p6266
mc20_13TeV.800909.Py8EG_A14NNPDF23LO_XHS_X250_S110_HyySbb.deriv.DAOD_PHYSLITE.e8531_a907_r14859_p6266
mc20_13TeV.800909.Py8EG_A14NNPDF23LO_XHS_X250_S110_HyySbb.deriv.DAOD_PHYSLITE.e8531_a907_r14860_p6266
mc20_13TeV.800909.Py8EG_A14NNPDF23LO_XHS_X250_S110_HyySbb.deriv.DAOD_PHYSLITE.e8531_a907_r14861_p6266
mc20_13TeV.800910.Py8EG_A14NNPDF23LO_XHS_X185_S030_HyySbb.deriv.DAOD_PHYSLITE.e8531_a907_r14859_p6266
mc20_13TeV.800910.Py8EG_A14NNPDF23LO_XHS_X185_S030_HyySbb.deriv.DAOD_PHYSLITE.e8531_a907_r14860_p6266
mc20_13TeV.800910.Py8EG_A14NNPDF23LO_XHS_X185_S030_HyySbb.deriv.DAOD_PHYSLITE.e8531_a907_r14861_p6266
mc20_13TeV.800911.Py8EG_A14NNPDF23LO_XHS_X205_S050_HyySbb.deriv.DAOD_PHYSLITE.e8531_a907_r14859_p6266
mc20_13TeV.800911.Py8EG_A14NNPDF23LO_XHS_X205_S050_HyySbb.deriv.DAOD_PHYSLITE.e8531_a907_r14860_p6266
mc20_13TeV.800911.Py8EG_A14NNPDF23LO_XHS_X205_S050_HyySbb.deriv.DAOD_PHYSLITE.e8531_a907_r14861_p6266
mc20_13TeV.800912.Py8EG_A14NNPDF23LO_XHS_X225_S070_HyySbb.deriv.DAOD_PHYSLITE.e8531_a907_r14859_p6266
mc20_13TeV.800912.Py8EG_A14NNPDF23LO_XHS_X225_S070_HyySbb.deriv.DAOD_PHYSLITE.e8531_a907_r14860_p6266
mc20_13TeV.800912.Py8EG_A14NNPDF23LO_XHS_X225_S070_HyySbb.deriv.DAOD_PHYSLITE.e8531_a907_r14861_p6266
mc20_13TeV.800913.Py8EG_A14NNPDF23LO_XHS_X245_S090_HyySbb.deriv.DAOD_PHYSLITE.e8531_a907_r14859_p6266
mc20_13TeV.800913.Py8EG_A14NNPDF23LO_XHS_X245_S090_HyySbb.deriv.DAOD_PHYSLITE.e8531_a907_r14860_p6266
mc20_13TeV.800913.Py8EG_A14NNPDF23LO_XHS_X245_S090_HyySbb.deriv.DAOD_PHYSLITE.e8531_a907_r14861_p6266
mc20_13TeV.800915.Py8EG_A14NNPDF23LO_XHS_X205_S030_HyySbb.deriv.DAOD_PHYSLITE.e8531_a907_r14859_p6266
mc20_13TeV.800915.Py8EG_A14NNPDF23LO_XHS_X205_S030_HyySbb.deriv.DAOD_PHYSLITE.e8531_a907_r14860_p6266
mc20_13TeV.800915.Py8EG_A14NNPDF23LO_XHS_X205_S030_HyySbb.deriv.DAOD_PHYSLITE.e8531_a907_r14861_p6266
mc20_13TeV.800916.Py8EG_A14NNPDF23LO_XHS_X225_S050_HyySbb.deriv.DAOD_PHYSLITE.e8531_a907_r14859_p6266
mc20_13TeV.800916.Py8EG_A14NNPDF23LO_XHS_X225_S050_HyySbb.deriv.DAOD_PHYSLITE.e8531_a907_r14860_p6266
mc20_13TeV.800916.Py8EG_A14NNPDF23LO_XHS_X225_S050_HyySbb.deriv.DAOD_PHYSLITE.e8531_a907_r14861_p6266
mc20_13TeV.800917.Py8EG_A14NNPDF23LO_XHS_X245_S070_HyySbb.deriv.DAOD_PHYSLITE.e8531_a907_r14859_p6266
mc20_13TeV.800917.Py8EG_A14NNPDF23LO_XHS_X245_S070_HyySbb.deriv.DAOD_PHYSLITE.e8531_a907_r14860_p6266
mc20_13TeV.800917.Py8EG_A14NNPDF23LO_XHS_X245_S070_HyySbb.deriv.DAOD_PHYSLITE.e8531_a907_r14861_p6266
mc20_13TeV.800919.Py8EG_A14NNPDF23LO_XHS_X225_S030_HyySbb.deriv.DAOD_PHYSLITE.e8531_a907_r14859_p6266
mc20_13TeV.800919.Py8EG_A14NNPDF23LO_XHS_X225_S030_HyySbb.deriv.DAOD_PHYSLITE.e8531_a907_r14860_p6266
mc20_13TeV.800919.Py8EG_A14NNPDF23LO_XHS_X225_S030_HyySbb.deriv.DAOD_PHYSLITE.e8531_a907_r14861_p6266
mc20_13TeV.800920.Py8EG_A14NNPDF23LO_XHS_X245_S050_HyySbb.deriv.DAOD_PHYSLITE.e8531_a907_r14859_p6266
mc20_13TeV.800920.Py8EG_A14NNPDF23LO_XHS_X245_S050_HyySbb.deriv.DAOD_PHYSLITE.e8531_a907_r14860_p6266
mc20_13TeV.800920.Py8EG_A14NNPDF23LO_XHS_X245_S050_HyySbb.deriv.DAOD_PHYSLITE.e8531_a907_r14861_p6266
mc20_13TeV.800922.Py8EG_A14NNPDF23LO_XHS_X245_S030_HyySbb.deriv.DAOD_PHYSLITE.e8531_a907_r14859_p6266
mc20_13TeV.800922.Py8EG_A14NNPDF23LO_XHS_X245_S030_HyySbb.deriv.DAOD_PHYSLITE.e8531_a907_r14860_p6266
mc20_13TeV.800922.Py8EG_A14NNPDF23LO_XHS_X245_S030_HyySbb.deriv.DAOD_PHYSLITE.e8531_a907_r14861_p6266
mc20_13TeV.801337.Py8EG_A14NNPDF23LO_XHS_X300_S170_HyySbb.deriv.DAOD_PHYSLITE.e8531_a907_r14859_p6266
mc20_13TeV.801337.Py8EG_A14NNPDF23LO_XHS_X300_S170_HyySbb.deriv.DAOD_PHYSLITE.e8531_a907_r14860_p6266
mc20_13TeV.801337.Py8EG_A14NNPDF23LO_XHS_X300_S170_HyySbb.deriv.DAOD_PHYSLITE.e8531_a907_r14861_p6266
mc20_13TeV.801338.Py8EG_A14NNPDF23LO_XHS_X400_S170_HyySbb.deriv.DAOD_PHYSLITE.e8531_a907_r14859_p6266
mc20_13TeV.801338.Py8EG_A14NNPDF23LO_XHS_X400_S170_HyySbb.deriv.DAOD_PHYSLITE.e8531_a907_r14860_p6266
mc20_13TeV.801338.Py8EG_A14NNPDF23LO_XHS_X400_S170_HyySbb.deriv.DAOD_PHYSLITE.e8531_a907_r14861_p6266
mc20_13TeV.801339.Py8EG_A14NNPDF23LO_XHS_X500_S170_HyySbb.deriv.DAOD_PHYSLITE.e8531_a907_r14859_p6266
mc20_13TeV.801339.Py8EG_A14NNPDF23LO_XHS_X500_S170_HyySbb.deriv.DAOD_PHYSLITE.e8531_a907_r14860_p6266
mc20_13TeV.801339.Py8EG_A14NNPDF23LO_XHS_X500_S170_HyySbb.deriv.DAOD_PHYSLITE.e8531_a907_r14861_p6266
mc20_13TeV.801340.Py8EG_A14NNPDF23LO_XHS_X600_S170_HyySbb.deriv.DAOD_PHYSLITE.e8531_a907_r14859_p6266
mc20_13TeV.801340.Py8EG_A14NNPDF23LO_XHS_X600_S170_HyySbb.deriv.DAOD_PHYSLITE.e8531_a907_r14860_p6266
mc20_13TeV.801340.Py8EG_A14NNPDF23LO_XHS_X600_S170_HyySbb.deriv.DAOD_PHYSLITE.e8531_a907_r14861_p6266
mc20_13TeV.801341.Py8EG_A14NNPDF23LO_XHS_X1000_S170_HyySbb.deriv.DAOD_PHYSLITE.e8531_a907_r14859_p6266
mc20_13TeV.801341.Py8EG_A14NNPDF23LO_XHS_X1000_S170_HyySbb.deriv.DAOD_PHYSLITE.e8531_a907_r14860_p6266
mc20_13TeV.801341.Py8EG_A14NNPDF23LO_XHS_X1000_S170_HyySbb.deriv.DAOD_PHYSLITE.e8531_a907_r14861_p6266
mc20_13TeV.801342.Py8EG_A14NNPDF23LO_XHS_X400_S200_HyySbb.deriv.DAOD_PHYSLITE.e8531_a907_r14859_p6266
mc20_13TeV.801342.Py8EG_A14NNPDF23LO_XHS_X400_S200_HyySbb.deriv.DAOD_PHYSLITE.e8531_a907_r14860_p6266
mc20_13TeV.801342.Py8EG_A14NNPDF23LO_XHS_X400_S200_HyySbb.deriv.DAOD_PHYSLITE.e8531_a907_r14861_p6266
mc20_13TeV.801343.Py8EG_A14NNPDF23LO_XHS_X500_S200_HyySbb.deriv.DAOD_PHYSLITE.e8531_a907_r14859_p6266
mc20_13TeV.801343.Py8EG_A14NNPDF23LO_XHS_X500_S200_HyySbb.deriv.DAOD_PHYSLITE.e8531_a907_r14860_p6266
mc20_13TeV.801343.Py8EG_A14NNPDF23LO_XHS_X500_S200_HyySbb.deriv.DAOD_PHYSLITE.e8531_a907_r14861_p6266
mc20_13TeV.801344.Py8EG_A14NNPDF23LO_XHS_X600_S200_HyySbb.deriv.DAOD_PHYSLITE.e8531_a907_r14859_p6266
mc20_13TeV.801344.Py8EG_A14NNPDF23LO_XHS_X600_S200_HyySbb.deriv.DAOD_PHYSLITE.e8531_a907_r14860_p6266
mc20_13TeV.801344.Py8EG_A14NNPDF23LO_XHS_X600_S200_HyySbb.deriv.DAOD_PHYSLITE.e8531_a907_r14861_p6266
mc20_13TeV.801345.Py8EG_A14NNPDF23LO_XHS_X1000_S200_HyySbb.deriv.DAOD_PHYSLITE.e8531_a907_r14859_p6266
mc20_13TeV.801345.Py8EG_A14NNPDF23LO_XHS_X1000_S200_HyySbb.deriv.DAOD_PHYSLITE.e8531_a907_r14860_p6266
mc20_13TeV.801345.Py8EG_A14NNPDF23LO_XHS_X1000_S200_HyySbb.deriv.DAOD_PHYSLITE.e8531_a907_r14861_p6266
mc20_13TeV.801346.Py8EG_A14NNPDF23LO_XHS_X500_S300_HyySbb.deriv.DAOD_PHYSLITE.e8531_a907_r14859_p6266
mc20_13TeV.801346.Py8EG_A14NNPDF23LO_XHS_X500_S300_HyySbb.deriv.DAOD_PHYSLITE.e8531_a907_r14860_p6266
mc20_13TeV.801346.Py8EG_A14NNPDF23LO_XHS_X500_S300_HyySbb.deriv.DAOD_PHYSLITE.e8531_a907_r14861_p6266
mc20_13TeV.801347.Py8EG_A14NNPDF23LO_XHS_X600_S300_HyySbb.deriv.DAOD_PHYSLITE.e8531_a907_r14859_p6266
mc20_13TeV.801347.Py8EG_A14NNPDF23LO_XHS_X600_S300_HyySbb.deriv.DAOD_PHYSLITE.e8531_a907_r14860_p6266
mc20_13TeV.801347.Py8EG_A14NNPDF23LO_XHS_X600_S300_HyySbb.deriv.DAOD_PHYSLITE.e8531_a907_r14861_p6266
mc20_13TeV.801348.Py8EG_A14NNPDF23LO_XHS_X1000_S300_HyySbb.deriv.DAOD_PHYSLITE.e8531_a907_r14859_p6266
mc20_13TeV.801348.Py8EG_A14NNPDF23LO_XHS_X1000_S300_HyySbb.deriv.DAOD_PHYSLITE.e8531_a907_r14860_p6266
mc20_13TeV.801348.Py8EG_A14NNPDF23LO_XHS_X1000_S300_HyySbb.deriv.DAOD_PHYSLITE.e8531_a907_r14861_p6266
mc20_13TeV.801349.Py8EG_A14NNPDF23LO_XHS_X600_S400_HyySbb.deriv.DAOD_PHYSLITE.e8531_a907_r14859_p6266
mc20_13TeV.801349.Py8EG_A14NNPDF23LO_XHS_X600_S400_HyySbb.deriv.DAOD_PHYSLITE.e8531_a907_r14860_p6266
mc20_13TeV.801349.Py8EG_A14NNPDF23LO_XHS_X600_S400_HyySbb.deriv.DAOD_PHYSLITE.e8531_a907_r14861_p6266
mc20_13TeV.801350.Py8EG_A14NNPDF23LO_XHS_X1000_S400_HyySbb.deriv.DAOD_PHYSLITE.e8531_a907_r14859_p6266
mc20_13TeV.801350.Py8EG_A14NNPDF23LO_XHS_X1000_S400_HyySbb.deriv.DAOD_PHYSLITE.e8531_a907_r14860_p6266
mc20_13TeV.801350.Py8EG_A14NNPDF23LO_XHS_X1000_S400_HyySbb.deriv.DAOD_PHYSLITE.e8531_a907_r14861_p6266
mc20_13TeV.801351.Py8EG_A14NNPDF23LO_XHS_X1000_S500_HyySbb.deriv.DAOD_PHYSLITE.e8531_a907_r14859_p6266
mc20_13TeV.801351.Py8EG_A14NNPDF23LO_XHS_X1000_S500_HyySbb.deriv.DAOD_PHYSLITE.e8531_a907_r14860_p6266
mc20_13TeV.801351.Py8EG_A14NNPDF23LO_XHS_X1000_S500_HyySbb.deriv.DAOD_PHYSLITE.e8531_a907_r14861_p6266
mc20_13TeV.801352.Py8EG_A14NNPDF23LO_XHS_X300_S30_HyySbb.deriv.DAOD_PHYSLITE.e8531_a907_r14859_p6266
mc20_13TeV.801352.Py8EG_A14NNPDF23LO_XHS_X300_S30_HyySbb.deriv.DAOD_PHYSLITE.e8531_a907_r14860_p6266
mc20_13TeV.801352.Py8EG_A14NNPDF23LO_XHS_X300_S30_HyySbb.deriv.DAOD_PHYSLITE.e8531_a907_r14861_p6266
mc20_13TeV.801355.Py8EG_A14NNPDF23LO_XHS_X300_S70_HyySbb.deriv.DAOD_PHYSLITE.e8531_a907_r14859_p6266
mc20_13TeV.801355.Py8EG_A14NNPDF23LO_XHS_X300_S70_HyySbb.deriv.DAOD_PHYSLITE.e8531_a907_r14860_p6266
mc20_13TeV.801355.Py8EG_A14NNPDF23LO_XHS_X300_S70_HyySbb.deriv.DAOD_PHYSLITE.e8531_a907_r14861_p6266
mc20_13TeV.801356.Py8EG_A14NNPDF23LO_XHS_X400_S70_HyySbb.deriv.DAOD_PHYSLITE.e8531_a907_r14859_p6266
mc20_13TeV.801356.Py8EG_A14NNPDF23LO_XHS_X400_S70_HyySbb.deriv.DAOD_PHYSLITE.e8531_a907_r14860_p6266
mc20_13TeV.801356.Py8EG_A14NNPDF23LO_XHS_X400_S70_HyySbb.deriv.DAOD_PHYSLITE.e8531_a907_r14861_p6266
mc20_13TeV.801357.Py8EG_A14NNPDF23LO_XHS_X500_S70_HyySbb.deriv.DAOD_PHYSLITE.e8531_a907_r14859_p6266
mc20_13TeV.801357.Py8EG_A14NNPDF23LO_XHS_X500_S70_HyySbb.deriv.DAOD_PHYSLITE.e8531_a907_r14860_p6266
mc20_13TeV.801357.Py8EG_A14NNPDF23LO_XHS_X500_S70_HyySbb.deriv.DAOD_PHYSLITE.e8531_a907_r14861_p6266
mc20_13TeV.801358.Py8EG_A14NNPDF23LO_XHS_X600_S70_HyySbb.deriv.DAOD_PHYSLITE.e8531_a907_r14859_p6266
mc20_13TeV.801358.Py8EG_A14NNPDF23LO_XHS_X600_S70_HyySbb.deriv.DAOD_PHYSLITE.e8531_a907_r14860_p6266
mc20_13TeV.801358.Py8EG_A14NNPDF23LO_XHS_X600_S70_HyySbb.deriv.DAOD_PHYSLITE.e8531_a907_r14861_p6266
mc20_13TeV.801360.Py8EG_A14NNPDF23LO_XHS_X300_S110_HyySbb.deriv.DAOD_PHYSLITE.e8531_a907_r14859_p6266
mc20_13TeV.801360.Py8EG_A14NNPDF23LO_XHS_X300_S110_HyySbb.deriv.DAOD_PHYSLITE.e8531_a907_r14860_p6266
mc20_13TeV.801360.Py8EG_A14NNPDF23LO_XHS_X300_S110_HyySbb.deriv.DAOD_PHYSLITE.e8531_a907_r14861_p6266
mc20_13TeV.801361.Py8EG_A14NNPDF23LO_XHS_X400_S110_HyySbb.deriv.DAOD_PHYSLITE.e8531_a907_r14859_p6266
mc20_13TeV.801361.Py8EG_A14NNPDF23LO_XHS_X400_S110_HyySbb.deriv.DAOD_PHYSLITE.e8531_a907_r14860_p6266
mc20_13TeV.801361.Py8EG_A14NNPDF23LO_XHS_X400_S110_HyySbb.deriv.DAOD_PHYSLITE.e8531_a907_r14861_p6266
mc20_13TeV.801362.Py8EG_A14NNPDF23LO_XHS_X500_S110_HyySbb.deriv.DAOD_PHYSLITE.e8531_a907_r14859_p6266
mc20_13TeV.801362.Py8EG_A14NNPDF23LO_XHS_X500_S110_HyySbb.deriv.DAOD_PHYSLITE.e8531_a907_r14860_p6266
mc20_13TeV.801362.Py8EG_A14NNPDF23LO_XHS_X500_S110_HyySbb.deriv.DAOD_PHYSLITE.e8531_a907_r14861_p6266
mc20_13TeV.801363.Py8EG_A14NNPDF23LO_XHS_X600_S110_HyySbb.deriv.DAOD_PHYSLITE.e8531_a907_r14859_p6266
mc20_13TeV.801363.Py8EG_A14NNPDF23LO_XHS_X600_S110_HyySbb.deriv.DAOD_PHYSLITE.e8531_a907_r14860_p6266
mc20_13TeV.801363.Py8EG_A14NNPDF23LO_XHS_X600_S110_HyySbb.deriv.DAOD_PHYSLITE.e8531_a907_r14861_p6266
mc20_13TeV.801364.Py8EG_A14NNPDF23LO_XHS_X1000_S110_HyySbb.deriv.DAOD_PHYSLITE.e8531_a907_r14859_p6266
mc20_13TeV.801364.Py8EG_A14NNPDF23LO_XHS_X1000_S110_HyySbb.deriv.DAOD_PHYSLITE.e8531_a907_r14860_p6266
mc20_13TeV.801364.Py8EG_A14NNPDF23LO_XHS_X1000_S110_HyySbb.deriv.DAOD_PHYSLITE.e8531_a907_r14861_p6266
mc20_13TeV.801365.Py8EG_A14NNPDF23LO_XHS_X750_S70_HyySbb.deriv.DAOD_PHYSLITE.e8531_a907_r14859_p6266
mc20_13TeV.801365.Py8EG_A14NNPDF23LO_XHS_X750_S70_HyySbb.deriv.DAOD_PHYSLITE.e8531_a907_r14860_p6266
mc20_13TeV.801365.Py8EG_A14NNPDF23LO_XHS_X750_S70_HyySbb.deriv.DAOD_PHYSLITE.e8531_a907_r14861_p6266
mc20_13TeV.801366.Py8EG_A14NNPDF23LO_XHS_X750_S110_HyySbb.deriv.DAOD_PHYSLITE.e8531_a907_r14859_p6266
mc20_13TeV.801366.Py8EG_A14NNPDF23LO_XHS_X750_S110_HyySbb.deriv.DAOD_PHYSLITE.e8531_a907_r14860_p6266
mc20_13TeV.801366.Py8EG_A14NNPDF23LO_XHS_X750_S110_HyySbb.deriv.DAOD_PHYSLITE.e8531_a907_r14861_p6266
mc20_13TeV.801367.Py8EG_A14NNPDF23LO_XHS_X750_S170_HyySbb.deriv.DAOD_PHYSLITE.e8531_a907_r14859_p6266
mc20_13TeV.801367.Py8EG_A14NNPDF23LO_XHS_X750_S170_HyySbb.deriv.DAOD_PHYSLITE.e8531_a907_r14860_p6266
mc20_13TeV.801367.Py8EG_A14NNPDF23LO_XHS_X750_S170_HyySbb.deriv.DAOD_PHYSLITE.e8531_a907_r14861_p6266
mc20_13TeV.801368.Py8EG_A14NNPDF23LO_XHS_X750_S200_HyySbb.deriv.DAOD_PHYSLITE.e8531_a907_r14859_p6266
mc20_13TeV.801368.Py8EG_A14NNPDF23LO_XHS_X750_S200_HyySbb.deriv.DAOD_PHYSLITE.e8531_a907_r14860_p6266
mc20_13TeV.801368.Py8EG_A14NNPDF23LO_XHS_X750_S200_HyySbb.deriv.DAOD_PHYSLITE.e8531_a907_r14861_p6266
mc20_13TeV.801369.Py8EG_A14NNPDF23LO_XHS_X750_S300_HyySbb.deriv.DAOD_PHYSLITE.e8531_a907_r14859_p6266
mc20_13TeV.801369.Py8EG_A14NNPDF23LO_XHS_X750_S300_HyySbb.deriv.DAOD_PHYSLITE.e8531_a907_r14860_p6266
mc20_13TeV.801369.Py8EG_A14NNPDF23LO_XHS_X750_S300_HyySbb.deriv.DAOD_PHYSLITE.e8531_a907_r14861_p6266
mc20_13TeV.801370.Py8EG_A14NNPDF23LO_XHS_X750_S400_HyySbb.deriv.DAOD_PHYSLITE.e8531_a907_r14859_p6266
mc20_13TeV.801370.Py8EG_A14NNPDF23LO_XHS_X750_S400_HyySbb.deriv.DAOD_PHYSLITE.e8531_a907_r14860_p6266
mc20_13TeV.801370.Py8EG_A14NNPDF23LO_XHS_X750_S400_HyySbb.deriv.DAOD_PHYSLITE.e8531_a907_r14861_p6266
mc20_13TeV.801371.Py8EG_A14NNPDF23LO_XHS_X750_S500_HyySbb.deriv.DAOD_PHYSLITE.e8531_a907_r14859_p6266
mc20_13TeV.801371.Py8EG_A14NNPDF23LO_XHS_X750_S500_HyySbb.deriv.DAOD_PHYSLITE.e8531_a907_r14860_p6266
mc20_13TeV.801371.Py8EG_A14NNPDF23LO_XHS_X750_S500_HyySbb.deriv.DAOD_PHYSLITE.e8531_a907_r14861_p6266
mc20_13TeV.801937.Py8EG_A14NNPDF23LO_XHS_X400_S250_HyySbb.deriv.DAOD_PHYSLITE.e8531_a907_r14859_p6266
mc20_13TeV.801937.Py8EG_A14NNPDF23LO_XHS_X400_S250_HyySbb.deriv.DAOD_PHYSLITE.e8531_a907_r14860_p6266
mc20_13TeV.801937.Py8EG_A14NNPDF23LO_XHS_X400_S250_HyySbb.deriv.DAOD_PHYSLITE.e8531_a907_r14861_p6266
mc20_13TeV.801938.Py8EG_A14NNPDF23LO_XHS_X500_S325_HyySbb.deriv.DAOD_PHYSLITE.e8531_a907_r14859_p6266
mc20_13TeV.801938.Py8EG_A14NNPDF23LO_XHS_X500_S325_HyySbb.deriv.DAOD_PHYSLITE.e8531_a907_r14860_p6266
mc20_13TeV.801938.Py8EG_A14NNPDF23LO_XHS_X500_S325_HyySbb.deriv.DAOD_PHYSLITE.e8531_a907_r14861_p6266
mc20_13TeV.801941.Py8EG_A14NNPDF23LO_XHS_X900_S600_HyySbb.deriv.DAOD_PHYSLITE.e8531_a907_r14859_p6266
mc20_13TeV.801941.Py8EG_A14NNPDF23LO_XHS_X900_S600_HyySbb.deriv.DAOD_PHYSLITE.e8531_a907_r14860_p6266
mc20_13TeV.801941.Py8EG_A14NNPDF23LO_XHS_X900_S600_HyySbb.deriv.DAOD_PHYSLITE.e8531_a907_r14861_p6266
mc20_13TeV.801942.Py8EG_A14NNPDF23LO_XHS_X350_S170_HyySbb.deriv.DAOD_PHYSLITE.e8531_a907_r14859_p6266
mc20_13TeV.801942.Py8EG_A14NNPDF23LO_XHS_X350_S170_HyySbb.deriv.DAOD_PHYSLITE.e8531_a907_r14860_p6266
mc20_13TeV.801942.Py8EG_A14NNPDF23LO_XHS_X350_S170_HyySbb.deriv.DAOD_PHYSLITE.e8531_a907_r14861_p6266
mc20_13TeV.801943.Py8EG_A14NNPDF23LO_XHS_X675_S400_HyySbb.deriv.DAOD_PHYSLITE.e8531_a907_r14859_p6266
mc20_13TeV.801943.Py8EG_A14NNPDF23LO_XHS_X675_S400_HyySbb.deriv.DAOD_PHYSLITE.e8531_a907_r14860_p6266
mc20_13TeV.801943.Py8EG_A14NNPDF23LO_XHS_X675_S400_HyySbb.deriv.DAOD_PHYSLITE.e8531_a907_r14861_p6266
mc20_13TeV.801944.Py8EG_A14NNPDF23LO_XHS_X875_S200_HyySbb.deriv.DAOD_PHYSLITE.e8531_a907_r14859_p6266
mc20_13TeV.801944.Py8EG_A14NNPDF23LO_XHS_X875_S200_HyySbb.deriv.DAOD_PHYSLITE.e8531_a907_r14860_p6266
mc20_13TeV.801944.Py8EG_A14NNPDF23LO_XHS_X875_S200_HyySbb.deriv.DAOD_PHYSLITE.e8531_a907_r14861_p6266
mc20_13TeV.801993.Py8EG_A14NNPDF23LO_XHS_X650_S90_HyySbb.deriv.DAOD_PHYSLITE.e8531_a907_r14859_p6266
mc20_13TeV.801993.Py8EG_A14NNPDF23LO_XHS_X650_S90_HyySbb.deriv.DAOD_PHYSLITE.e8531_a907_r14860_p6266
mc20_13TeV.801993.Py8EG_A14NNPDF23LO_XHS_X650_S90_HyySbb.deriv.DAOD_PHYSLITE.e8531_a907_r14861_p6266
mc20_13TeV.801994.Py8EG_A14NNPDF23LO_XHS_X575_S200_HyySbb.deriv.DAOD_PHYSLITE.e8531_a907_r14859_p6266
mc20_13TeV.801994.Py8EG_A14NNPDF23LO_XHS_X575_S200_HyySbb.deriv.DAOD_PHYSLITE.e8531_a907_r14860_p6266
mc20_13TeV.801994.Py8EG_A14NNPDF23LO_XHS_X575_S200_HyySbb.deriv.DAOD_PHYSLITE.e8531_a907_r14861_p6266
mc20_13TeV.802073.Py8EG_A14NNPDF23LO_XHS_X177_S30_HyySbb.deriv.DAOD_PHYSLITE.e8531_a907_r14859_p6266
mc20_13TeV.802073.Py8EG_A14NNPDF23LO_XHS_X177_S30_HyySbb.deriv.DAOD_PHYSLITE.e8531_a907_r14860_p6266
mc20_13TeV.802073.Py8EG_A14NNPDF23LO_XHS_X177_S30_HyySbb.deriv.DAOD_PHYSLITE.e8531_a907_r14861_p6266
mc20_13TeV.802074.Py8EG_A14NNPDF23LO_XHS_X177_S40_HyySbb.deriv.DAOD_PHYSLITE.e8531_a907_r14859_p6266
mc20_13TeV.802074.Py8EG_A14NNPDF23LO_XHS_X177_S40_HyySbb.deriv.DAOD_PHYSLITE.e8531_a907_r14860_p6266
mc20_13TeV.802074.Py8EG_A14NNPDF23LO_XHS_X177_S40_HyySbb.deriv.DAOD_PHYSLITE.e8531_a907_r14861_p6266
mc20_13TeV.802075.Py8EG_A14NNPDF23LO_XHS_X185_S40_HyySbb.deriv.DAOD_PHYSLITE.e8531_a907_r14859_p6266
mc20_13TeV.802075.Py8EG_A14NNPDF23LO_XHS_X185_S40_HyySbb.deriv.DAOD_PHYSLITE.e8531_a907_r14860_p6266
mc20_13TeV.802075.Py8EG_A14NNPDF23LO_XHS_X185_S40_HyySbb.deriv.DAOD_PHYSLITE.e8531_a907_r14861_p6266
mc20_13TeV.802076.Py8EG_A14NNPDF23LO_XHS_X185_S50_HyySbb.deriv.DAOD_PHYSLITE.e8531_a907_r14859_p6266
mc20_13TeV.802076.Py8EG_A14NNPDF23LO_XHS_X185_S50_HyySbb.deriv.DAOD_PHYSLITE.e8531_a907_r14860_p6266
mc20_13TeV.802076.Py8EG_A14NNPDF23LO_XHS_X185_S50_HyySbb.deriv.DAOD_PHYSLITE.e8531_a907_r14861_p6266
mc20_13TeV.802077.Py8EG_A14NNPDF23LO_XHS_X195_S30_HyySbb.deriv.DAOD_PHYSLITE.e8531_a907_r14859_p6266
mc20_13TeV.802077.Py8EG_A14NNPDF23LO_XHS_X195_S30_HyySbb.deriv.DAOD_PHYSLITE.e8531_a907_r14860_p6266
mc20_13TeV.802077.Py8EG_A14NNPDF23LO_XHS_X195_S30_HyySbb.deriv.DAOD_PHYSLITE.e8531_a907_r14861_p6266
mc20_13TeV.802078.Py8EG_A14NNPDF23LO_XHS_X195_S40_HyySbb.deriv.DAOD_PHYSLITE.e8531_a907_r14859_p6266
mc20_13TeV.802078.Py8EG_A14NNPDF23LO_XHS_X195_S40_HyySbb.deriv.DAOD_PHYSLITE.e8531_a907_r14860_p6266
mc20_13TeV.802078.Py8EG_A14NNPDF23LO_XHS_X195_S40_HyySbb.deriv.DAOD_PHYSLITE.e8531_a907_r14861_p6266
mc20_13TeV.802079.Py8EG_A14NNPDF23LO_XHS_X195_S50_HyySbb.deriv.DAOD_PHYSLITE.e8531_a907_r14859_p6266
mc20_13TeV.802079.Py8EG_A14NNPDF23LO_XHS_X195_S50_HyySbb.deriv.DAOD_PHYSLITE.e8531_a907_r14860_p6266
mc20_13TeV.802079.Py8EG_A14NNPDF23LO_XHS_X195_S50_HyySbb.deriv.DAOD_PHYSLITE.e8531_a907_r14861_p6266
mc20_13TeV.802080.Py8EG_A14NNPDF23LO_XHS_X195_S60_HyySbb.deriv.DAOD_PHYSLITE.e8531_a907_r14859_p6266
mc20_13TeV.802080.Py8EG_A14NNPDF23LO_XHS_X195_S60_HyySbb.deriv.DAOD_PHYSLITE.e8531_a907_r14860_p6266
mc20_13TeV.802080.Py8EG_A14NNPDF23LO_XHS_X195_S60_HyySbb.deriv.DAOD_PHYSLITE.e8531_a907_r14861_p6266
mc20_13TeV.802081.Py8EG_A14NNPDF23LO_XHS_X205_S40_HyySbb.deriv.DAOD_PHYSLITE.e8531_a907_r14859_p6266
mc20_13TeV.802081.Py8EG_A14NNPDF23LO_XHS_X205_S40_HyySbb.deriv.DAOD_PHYSLITE.e8531_a907_r14860_p6266
mc20_13TeV.802081.Py8EG_A14NNPDF23LO_XHS_X205_S40_HyySbb.deriv.DAOD_PHYSLITE.e8531_a907_r14861_p6266
mc20_13TeV.802082.Py8EG_A14NNPDF23LO_XHS_X205_S60_HyySbb.deriv.DAOD_PHYSLITE.e8531_a907_r14859_p6266
mc20_13TeV.802082.Py8EG_A14NNPDF23LO_XHS_X205_S60_HyySbb.deriv.DAOD_PHYSLITE.e8531_a907_r14860_p6266
mc20_13TeV.802082.Py8EG_A14NNPDF23LO_XHS_X205_S60_HyySbb.deriv.DAOD_PHYSLITE.e8531_a907_r14861_p6266
mc20_13TeV.802083.Py8EG_A14NNPDF23LO_XHS_X205_S70_HyySbb.deriv.DAOD_PHYSLITE.e8531_a907_r14859_p6266
mc20_13TeV.802083.Py8EG_A14NNPDF23LO_XHS_X205_S70_HyySbb.deriv.DAOD_PHYSLITE.e8531_a907_r14860_p6266
mc20_13TeV.802083.Py8EG_A14NNPDF23LO_XHS_X205_S70_HyySbb.deriv.DAOD_PHYSLITE.e8531_a907_r14861_p6266
mc20_13TeV.802084.Py8EG_A14NNPDF23LO_XHS_X215_S30_HyySbb.deriv.DAOD_PHYSLITE.e8531_a907_r14859_p6266
mc20_13TeV.802084.Py8EG_A14NNPDF23LO_XHS_X215_S30_HyySbb.deriv.DAOD_PHYSLITE.e8531_a907_r14860_p6266
mc20_13TeV.802084.Py8EG_A14NNPDF23LO_XHS_X215_S30_HyySbb.deriv.DAOD_PHYSLITE.e8531_a907_r14861_p6266
mc20_13TeV.802085.Py8EG_A14NNPDF23LO_XHS_X215_S40_HyySbb.deriv.DAOD_PHYSLITE.e8531_a907_r14859_p6266
mc20_13TeV.802085.Py8EG_A14NNPDF23LO_XHS_X215_S40_HyySbb.deriv.DAOD_PHYSLITE.e8531_a907_r14860_p6266
mc20_13TeV.802085.Py8EG_A14NNPDF23LO_XHS_X215_S40_HyySbb.deriv.DAOD_PHYSLITE.e8531_a907_r14861_p6266
mc20_13TeV.802086.Py8EG_A14NNPDF23LO_XHS_X215_S50_HyySbb.deriv.DAOD_PHYSLITE.e8531_a907_r14859_p6266
mc20_13TeV.802086.Py8EG_A14NNPDF23LO_XHS_X215_S50_HyySbb.deriv.DAOD_PHYSLITE.e8531_a907_r14860_p6266
mc20_13TeV.802086.Py8EG_A14NNPDF23LO_XHS_X215_S50_HyySbb.deriv.DAOD_PHYSLITE.e8531_a907_r14861_p6266
mc20_13TeV.802087.Py8EG_A14NNPDF23LO_XHS_X215_S60_HyySbb.deriv.DAOD_PHYSLITE.e8531_a907_r14859_p6266
mc20_13TeV.802087.Py8EG_A14NNPDF23LO_XHS_X215_S60_HyySbb.deriv.DAOD_PHYSLITE.e8531_a907_r14860_p6266
mc20_13TeV.802087.Py8EG_A14NNPDF23LO_XHS_X215_S60_HyySbb.deriv.DAOD_PHYSLITE.e8531_a907_r14861_p6266
mc20_13TeV.802088.Py8EG_A14NNPDF23LO_XHS_X215_S70_HyySbb.deriv.DAOD_PHYSLITE.e8531_a907_r14859_p6266
mc20_13TeV.802088.Py8EG_A14NNPDF23LO_XHS_X215_S70_HyySbb.deriv.DAOD_PHYSLITE.e8531_a907_r14860_p6266
mc20_13TeV.802088.Py8EG_A14NNPDF23LO_XHS_X215_S70_HyySbb.deriv.DAOD_PHYSLITE.e8531_a907_r14861_p6266
mc20_13TeV.802089.Py8EG_A14NNPDF23LO_XHS_X215_S80_HyySbb.deriv.DAOD_PHYSLITE.e8531_a907_r14859_p6266
mc20_13TeV.802089.Py8EG_A14NNPDF23LO_XHS_X215_S80_HyySbb.deriv.DAOD_PHYSLITE.e8531_a907_r14860_p6266
mc20_13TeV.802089.Py8EG_A14NNPDF23LO_XHS_X215_S80_HyySbb.deriv.DAOD_PHYSLITE.e8531_a907_r14861_p6266
mc20_13TeV.802090.Py8EG_A14NNPDF23LO_XHS_X225_S40_HyySbb.deriv.DAOD_PHYSLITE.e8531_a907_r14859_p6266
mc20_13TeV.802090.Py8EG_A14NNPDF23LO_XHS_X225_S40_HyySbb.deriv.DAOD_PHYSLITE.e8531_a907_r14860_p6266
mc20_13TeV.802090.Py8EG_A14NNPDF23LO_XHS_X225_S40_HyySbb.deriv.DAOD_PHYSLITE.e8531_a907_r14861_p6266
mc20_13TeV.802091.Py8EG_A14NNPDF23LO_XHS_X225_S60_HyySbb.deriv.DAOD_PHYSLITE.e8531_a907_r14859_p6266
mc20_13TeV.802091.Py8EG_A14NNPDF23LO_XHS_X225_S60_HyySbb.deriv.DAOD_PHYSLITE.e8531_a907_r14860_p6266
mc20_13TeV.802091.Py8EG_A14NNPDF23LO_XHS_X225_S60_HyySbb.deriv.DAOD_PHYSLITE.e8531_a907_r14861_p6266
mc20_13TeV.802092.Py8EG_A14NNPDF23LO_XHS_X225_S80_HyySbb.deriv.DAOD_PHYSLITE.e8531_a907_r14859_p6266
mc20_13TeV.802092.Py8EG_A14NNPDF23LO_XHS_X225_S80_HyySbb.deriv.DAOD_PHYSLITE.e8531_a907_r14860_p6266
mc20_13TeV.802092.Py8EG_A14NNPDF23LO_XHS_X225_S80_HyySbb.deriv.DAOD_PHYSLITE.e8531_a907_r14861_p6266
mc20_13TeV.802093.Py8EG_A14NNPDF23LO_XHS_X225_S90_HyySbb.deriv.DAOD_PHYSLITE.e8531_a907_r14859_p6266
mc20_13TeV.802093.Py8EG_A14NNPDF23LO_XHS_X225_S90_HyySbb.deriv.DAOD_PHYSLITE.e8531_a907_r14860_p6266
mc20_13TeV.802093.Py8EG_A14NNPDF23LO_XHS_X225_S90_HyySbb.deriv.DAOD_PHYSLITE.e8531_a907_r14861_p6266
mc20_13TeV.802094.Py8EG_A14NNPDF23LO_XHS_X235_S30_HyySbb.deriv.DAOD_PHYSLITE.e8531_a907_r14859_p6266
mc20_13TeV.802094.Py8EG_A14NNPDF23LO_XHS_X235_S30_HyySbb.deriv.DAOD_PHYSLITE.e8531_a907_r14860_p6266
mc20_13TeV.802094.Py8EG_A14NNPDF23LO_XHS_X235_S30_HyySbb.deriv.DAOD_PHYSLITE.e8531_a907_r14861_p6266
mc20_13TeV.802095.Py8EG_A14NNPDF23LO_XHS_X235_S40_HyySbb.deriv.DAOD_PHYSLITE.e8531_a907_r14859_p6266
mc20_13TeV.802095.Py8EG_A14NNPDF23LO_XHS_X235_S40_HyySbb.deriv.DAOD_PHYSLITE.e8531_a907_r14860_p6266
mc20_13TeV.802095.Py8EG_A14NNPDF23LO_XHS_X235_S40_HyySbb.deriv.DAOD_PHYSLITE.e8531_a907_r14861_p6266
mc20_13TeV.802096.Py8EG_A14NNPDF23LO_XHS_X235_S50_HyySbb.deriv.DAOD_PHYSLITE.e8531_a907_r14859_p6266
mc20_13TeV.802096.Py8EG_A14NNPDF23LO_XHS_X235_S50_HyySbb.deriv.DAOD_PHYSLITE.e8531_a907_r14860_p6266
mc20_13TeV.802096.Py8EG_A14NNPDF23LO_XHS_X235_S50_HyySbb.deriv.DAOD_PHYSLITE.e8531_a907_r14861_p6266
mc20_13TeV.802097.Py8EG_A14NNPDF23LO_XHS_X235_S60_HyySbb.deriv.DAOD_PHYSLITE.e8531_a907_r14859_p6266
mc20_13TeV.802097.Py8EG_A14NNPDF23LO_XHS_X235_S60_HyySbb.deriv.DAOD_PHYSLITE.e8531_a907_r14860_p6266
mc20_13TeV.802097.Py8EG_A14NNPDF23LO_XHS_X235_S60_HyySbb.deriv.DAOD_PHYSLITE.e8531_a907_r14861_p6266
mc20_13TeV.802098.Py8EG_A14NNPDF23LO_XHS_X235_S70_HyySbb.deriv.DAOD_PHYSLITE.e8531_a907_r14859_p6266
mc20_13TeV.802098.Py8EG_A14NNPDF23LO_XHS_X235_S70_HyySbb.deriv.DAOD_PHYSLITE.e8531_a907_r14860_p6266
mc20_13TeV.802098.Py8EG_A14NNPDF23LO_XHS_X235_S70_HyySbb.deriv.DAOD_PHYSLITE.e8531_a907_r14861_p6266
mc20_13TeV.802099.Py8EG_A14NNPDF23LO_XHS_X235_S80_HyySbb.deriv.DAOD_PHYSLITE.e8531_a907_r14859_p6266
mc20_13TeV.802099.Py8EG_A14NNPDF23LO_XHS_X235_S80_HyySbb.deriv.DAOD_PHYSLITE.e8531_a907_r14860_p6266
mc20_13TeV.802099.Py8EG_A14NNPDF23LO_XHS_X235_S80_HyySbb.deriv.DAOD_PHYSLITE.e8531_a907_r14861_p6266
mc20_13TeV.802100.Py8EG_A14NNPDF23LO_XHS_X235_S90_HyySbb.deriv.DAOD_PHYSLITE.e8531_a907_r14859_p6266
mc20_13TeV.802100.Py8EG_A14NNPDF23LO_XHS_X235_S90_HyySbb.deriv.DAOD_PHYSLITE.e8531_a907_r14860_p6266
mc20_13TeV.802100.Py8EG_A14NNPDF23LO_XHS_X235_S90_HyySbb.deriv.DAOD_PHYSLITE.e8531_a907_r14861_p6266
mc20_13TeV.802101.Py8EG_A14NNPDF23LO_XHS_X245_S40_HyySbb.deriv.DAOD_PHYSLITE.e8531_a907_r14859_p6266
mc20_13TeV.802101.Py8EG_A14NNPDF23LO_XHS_X245_S40_HyySbb.deriv.DAOD_PHYSLITE.e8531_a907_r14860_p6266
mc20_13TeV.802101.Py8EG_A14NNPDF23LO_XHS_X245_S40_HyySbb.deriv.DAOD_PHYSLITE.e8531_a907_r14861_p6266
mc20_13TeV.802102.Py8EG_A14NNPDF23LO_XHS_X245_S60_HyySbb.deriv.DAOD_PHYSLITE.e8531_a907_r14859_p6266
mc20_13TeV.802102.Py8EG_A14NNPDF23LO_XHS_X245_S60_HyySbb.deriv.DAOD_PHYSLITE.e8531_a907_r14860_p6266
mc20_13TeV.802102.Py8EG_A14NNPDF23LO_XHS_X245_S60_HyySbb.deriv.DAOD_PHYSLITE.e8531_a907_r14861_p6266
mc20_13TeV.802103.Py8EG_A14NNPDF23LO_XHS_X245_S80_HyySbb.deriv.DAOD_PHYSLITE.e8531_a907_r14859_p6266
mc20_13TeV.802103.Py8EG_A14NNPDF23LO_XHS_X245_S80_HyySbb.deriv.DAOD_PHYSLITE.e8531_a907_r14860_p6266
mc20_13TeV.802103.Py8EG_A14NNPDF23LO_XHS_X245_S80_HyySbb.deriv.DAOD_PHYSLITE.e8531_a907_r14861_p6266
mc20_13TeV.802104.Py8EG_A14NNPDF23LO_XHS_X260_S110_HyySbb.deriv.DAOD_PHYSLITE.e8531_a907_r14859_p6266
mc20_13TeV.802104.Py8EG_A14NNPDF23LO_XHS_X260_S110_HyySbb.deriv.DAOD_PHYSLITE.e8531_a907_r14860_p6266
mc20_13TeV.802104.Py8EG_A14NNPDF23LO_XHS_X260_S110_HyySbb.deriv.DAOD_PHYSLITE.e8531_a907_r14861_p6266
mc20_13TeV.802105.Py8EG_A14NNPDF23LO_XHS_X260_S30_HyySbb.deriv.DAOD_PHYSLITE.e8531_a907_r14859_p6266
mc20_13TeV.802105.Py8EG_A14NNPDF23LO_XHS_X260_S30_HyySbb.deriv.DAOD_PHYSLITE.e8531_a907_r14860_p6266
mc20_13TeV.802105.Py8EG_A14NNPDF23LO_XHS_X260_S30_HyySbb.deriv.DAOD_PHYSLITE.e8531_a907_r14861_p6266
mc20_13TeV.802106.Py8EG_A14NNPDF23LO_XHS_X260_S50_HyySbb.deriv.DAOD_PHYSLITE.e8531_a907_r14859_p6266
mc20_13TeV.802106.Py8EG_A14NNPDF23LO_XHS_X260_S50_HyySbb.deriv.DAOD_PHYSLITE.e8531_a907_r14860_p6266
mc20_13TeV.802106.Py8EG_A14NNPDF23LO_XHS_X260_S50_HyySbb.deriv.DAOD_PHYSLITE.e8531_a907_r14861_p6266
mc20_13TeV.802107.Py8EG_A14NNPDF23LO_XHS_X260_S70_HyySbb.deriv.DAOD_PHYSLITE.e8531_a907_r14859_p6266
mc20_13TeV.802107.Py8EG_A14NNPDF23LO_XHS_X260_S70_HyySbb.deriv.DAOD_PHYSLITE.e8531_a907_r14860_p6266
mc20_13TeV.802107.Py8EG_A14NNPDF23LO_XHS_X260_S70_HyySbb.deriv.DAOD_PHYSLITE.e8531_a907_r14861_p6266
mc20_13TeV.802108.Py8EG_A14NNPDF23LO_XHS_X260_S90_HyySbb.deriv.DAOD_PHYSLITE.e8531_a907_r14859_p6266
mc20_13TeV.802108.Py8EG_A14NNPDF23LO_XHS_X260_S90_HyySbb.deriv.DAOD_PHYSLITE.e8531_a907_r14860_p6266
mc20_13TeV.802108.Py8EG_A14NNPDF23LO_XHS_X260_S90_HyySbb.deriv.DAOD_PHYSLITE.e8531_a907_r14861_p6266
mc20_13TeV.802109.Py8EG_A14NNPDF23LO_XHS_X275_S110_HyySbb.deriv.DAOD_PHYSLITE.e8531_a907_r14859_p6266
mc20_13TeV.802109.Py8EG_A14NNPDF23LO_XHS_X275_S110_HyySbb.deriv.DAOD_PHYSLITE.e8531_a907_r14860_p6266
mc20_13TeV.802109.Py8EG_A14NNPDF23LO_XHS_X275_S110_HyySbb.deriv.DAOD_PHYSLITE.e8531_a907_r14861_p6266
mc20_13TeV.802110.Py8EG_A14NNPDF23LO_XHS_X275_S145_HyySbb.deriv.DAOD_PHYSLITE.e8531_a907_r14859_p6266
mc20_13TeV.802110.Py8EG_A14NNPDF23LO_XHS_X275_S145_HyySbb.deriv.DAOD_PHYSLITE.e8531_a907_r14860_p6266
mc20_13TeV.802110.Py8EG_A14NNPDF23LO_XHS_X275_S145_HyySbb.deriv.DAOD_PHYSLITE.e8531_a907_r14861_p6266
mc20_13TeV.802111.Py8EG_A14NNPDF23LO_XHS_X275_S70_HyySbb.deriv.DAOD_PHYSLITE.e8531_a907_r14859_p6266
mc20_13TeV.802111.Py8EG_A14NNPDF23LO_XHS_X275_S70_HyySbb.deriv.DAOD_PHYSLITE.e8531_a907_r14860_p6266
mc20_13TeV.802111.Py8EG_A14NNPDF23LO_XHS_X275_S70_HyySbb.deriv.DAOD_PHYSLITE.e8531_a907_r14861_p6266
mc20_13TeV.802112.Py8EG_A14NNPDF23LO_XHS_X275_S90_HyySbb.deriv.DAOD_PHYSLITE.e8531_a907_r14859_p6266
mc20_13TeV.802112.Py8EG_A14NNPDF23LO_XHS_X275_S90_HyySbb.deriv.DAOD_PHYSLITE.e8531_a907_r14860_p6266
mc20_13TeV.802112.Py8EG_A14NNPDF23LO_XHS_X275_S90_HyySbb.deriv.DAOD_PHYSLITE.e8531_a907_r14861_p6266
mc20_13TeV.802113.Py8EG_A14NNPDF23LO_XHS_X287_S110_HyySbb.deriv.DAOD_PHYSLITE.e8531_a907_r14859_p6266
mc20_13TeV.802113.Py8EG_A14NNPDF23LO_XHS_X287_S110_HyySbb.deriv.DAOD_PHYSLITE.e8531_a907_r14860_p6266
mc20_13TeV.802113.Py8EG_A14NNPDF23LO_XHS_X287_S110_HyySbb.deriv.DAOD_PHYSLITE.e8531_a907_r14861_p6266
mc20_13TeV.802114.Py8EG_A14NNPDF23LO_XHS_X287_S157_HyySbb.deriv.DAOD_PHYSLITE.e8531_a907_r14859_p6266
mc20_13TeV.802114.Py8EG_A14NNPDF23LO_XHS_X287_S157_HyySbb.deriv.DAOD_PHYSLITE.e8531_a907_r14860_p6266
mc20_13TeV.802114.Py8EG_A14NNPDF23LO_XHS_X287_S157_HyySbb.deriv.DAOD_PHYSLITE.e8531_a907_r14861_p6266
mc20_13TeV.802115.Py8EG_A14NNPDF23LO_XHS_X287_S30_HyySbb.deriv.DAOD_PHYSLITE.e8531_a907_r14859_p6266
mc20_13TeV.802115.Py8EG_A14NNPDF23LO_XHS_X287_S30_HyySbb.deriv.DAOD_PHYSLITE.e8531_a907_r14860_p6266
mc20_13TeV.802115.Py8EG_A14NNPDF23LO_XHS_X287_S30_HyySbb.deriv.DAOD_PHYSLITE.e8531_a907_r14861_p6266
mc20_13TeV.802116.Py8EG_A14NNPDF23LO_XHS_X287_S50_HyySbb.deriv.DAOD_PHYSLITE.e8531_a907_r14859_p6266
mc20_13TeV.802116.Py8EG_A14NNPDF23LO_XHS_X287_S50_HyySbb.deriv.DAOD_PHYSLITE.e8531_a907_r14860_p6266
mc20_13TeV.802116.Py8EG_A14NNPDF23LO_XHS_X287_S50_HyySbb.deriv.DAOD_PHYSLITE.e8531_a907_r14861_p6266
mc20_13TeV.802117.Py8EG_A14NNPDF23LO_XHS_X287_S70_HyySbb.deriv.DAOD_PHYSLITE.e8531_a907_r14859_p6266
mc20_13TeV.802117.Py8EG_A14NNPDF23LO_XHS_X287_S70_HyySbb.deriv.DAOD_PHYSLITE.e8531_a907_r14860_p6266
mc20_13TeV.802117.Py8EG_A14NNPDF23LO_XHS_X287_S70_HyySbb.deriv.DAOD_PHYSLITE.e8531_a907_r14861_p6266
mc20_13TeV.802118.Py8EG_A14NNPDF23LO_XHS_X287_S90_HyySbb.deriv.DAOD_PHYSLITE.e8531_a907_r14859_p6266
mc20_13TeV.802118.Py8EG_A14NNPDF23LO_XHS_X287_S90_HyySbb.deriv.DAOD_PHYSLITE.e8531_a907_r14860_p6266
mc20_13TeV.802118.Py8EG_A14NNPDF23LO_XHS_X287_S90_HyySbb.deriv.DAOD_PHYSLITE.e8531_a907_r14861_p6266
mc20_13TeV.802119.Py8EG_A14NNPDF23LO_XHS_X300_S50_HyySbb.deriv.DAOD_PHYSLITE.e8531_a907_r14859_p6266
mc20_13TeV.802119.Py8EG_A14NNPDF23LO_XHS_X300_S50_HyySbb.deriv.DAOD_PHYSLITE.e8531_a907_r14860_p6266
mc20_13TeV.802119.Py8EG_A14NNPDF23LO_XHS_X300_S50_HyySbb.deriv.DAOD_PHYSLITE.e8531_a907_r14861_p6266
mc20_13TeV.802120.Py8EG_A14NNPDF23LO_XHS_X325_S30_HyySbb.deriv.DAOD_PHYSLITE.e8531_a907_r14859_p6266
mc20_13TeV.802120.Py8EG_A14NNPDF23LO_XHS_X325_S30_HyySbb.deriv.DAOD_PHYSLITE.e8531_a907_r14860_p6266
mc20_13TeV.802120.Py8EG_A14NNPDF23LO_XHS_X325_S30_HyySbb.deriv.DAOD_PHYSLITE.e8531_a907_r14861_p6266
mc20_13TeV.802121.Py8EG_A14NNPDF23LO_XHS_X325_S50_HyySbb.deriv.DAOD_PHYSLITE.e8531_a907_r14859_p6266
mc20_13TeV.802121.Py8EG_A14NNPDF23LO_XHS_X325_S50_HyySbb.deriv.DAOD_PHYSLITE.e8531_a907_r14860_p6266
mc20_13TeV.802121.Py8EG_A14NNPDF23LO_XHS_X325_S50_HyySbb.deriv.DAOD_PHYSLITE.e8531_a907_r14861_p6266
mc20_13TeV.802122.Py8EG_A14NNPDF23LO_XHS_X325_S70_HyySbb.deriv.DAOD_PHYSLITE.e8531_a907_r14859_p6266
mc20_13TeV.802122.Py8EG_A14NNPDF23LO_XHS_X325_S70_HyySbb.deriv.DAOD_PHYSLITE.e8531_a907_r14860_p6266
mc20_13TeV.802122.Py8EG_A14NNPDF23LO_XHS_X325_S70_HyySbb.deriv.DAOD_PHYSLITE.e8531_a907_r14861_p6266
mc20_13TeV.802124.Py8EG_A14NNPDF23LO_XHS_X350_S50_HyySbb.deriv.DAOD_PHYSLITE.e8531_a907_r14859_p6266
mc20_13TeV.802124.Py8EG_A14NNPDF23LO_XHS_X350_S50_HyySbb.deriv.DAOD_PHYSLITE.e8531_a907_r14860_p6266
mc20_13TeV.802124.Py8EG_A14NNPDF23LO_XHS_X350_S50_HyySbb.deriv.DAOD_PHYSLITE.e8531_a907_r14861_p6266
mc20_13TeV.802125.Py8EG_A14NNPDF23LO_XHS_X350_S70_HyySbb.deriv.DAOD_PHYSLITE.e8531_a907_r14859_p6266
mc20_13TeV.802125.Py8EG_A14NNPDF23LO_XHS_X350_S70_HyySbb.deriv.DAOD_PHYSLITE.e8531_a907_r14860_p6266
mc20_13TeV.802125.Py8EG_A14NNPDF23LO_XHS_X350_S70_HyySbb.deriv.DAOD_PHYSLITE.e8531_a907_r14861_p6266
mc20_13TeV.802127.Py8EG_A14NNPDF23LO_XHS_X375_S50_HyySbb.deriv.DAOD_PHYSLITE.e8531_a907_r14859_p6266
mc20_13TeV.802127.Py8EG_A14NNPDF23LO_XHS_X375_S50_HyySbb.deriv.DAOD_PHYSLITE.e8531_a907_r14860_p6266
mc20_13TeV.802127.Py8EG_A14NNPDF23LO_XHS_X375_S50_HyySbb.deriv.DAOD_PHYSLITE.e8531_a907_r14861_p6266
mc20_13TeV.802128.Py8EG_A14NNPDF23LO_XHS_X375_S70_HyySbb.deriv.DAOD_PHYSLITE.e8531_a907_r14859_p6266
mc20_13TeV.802128.Py8EG_A14NNPDF23LO_XHS_X375_S70_HyySbb.deriv.DAOD_PHYSLITE.e8531_a907_r14860_p6266
mc20_13TeV.802128.Py8EG_A14NNPDF23LO_XHS_X375_S70_HyySbb.deriv.DAOD_PHYSLITE.e8531_a907_r14861_p6266
mc20_13TeV.802129.Py8EG_A14NNPDF23LO_XHS_X400_S50_HyySbb.deriv.DAOD_PHYSLITE.e8531_a907_r14859_p6266
mc20_13TeV.802129.Py8EG_A14NNPDF23LO_XHS_X400_S50_HyySbb.deriv.DAOD_PHYSLITE.e8531_a907_r14860_p6266
mc20_13TeV.802129.Py8EG_A14NNPDF23LO_XHS_X400_S50_HyySbb.deriv.DAOD_PHYSLITE.e8531_a907_r14861_p6266
mc20_13TeV.802131.Py8EG_A14NNPDF23LO_XHS_X425_S50_HyySbb.deriv.DAOD_PHYSLITE.e8531_a907_r14859_p6266
mc20_13TeV.802131.Py8EG_A14NNPDF23LO_XHS_X425_S50_HyySbb.deriv.DAOD_PHYSLITE.e8531_a907_r14860_p6266
mc20_13TeV.802131.Py8EG_A14NNPDF23LO_XHS_X425_S50_HyySbb.deriv.DAOD_PHYSLITE.e8531_a907_r14861_p6266
mc20_13TeV.802132.Py8EG_A14NNPDF23LO_XHS_X425_S70_HyySbb.deriv.DAOD_PHYSLITE.e8531_a907_r14859_p6266
mc20_13TeV.802132.Py8EG_A14NNPDF23LO_XHS_X425_S70_HyySbb.deriv.DAOD_PHYSLITE.e8531_a907_r14860_p6266
mc20_13TeV.802132.Py8EG_A14NNPDF23LO_XHS_X425_S70_HyySbb.deriv.DAOD_PHYSLITE.e8531_a907_r14861_p6266
mc20_13TeV.802134.Py8EG_A14NNPDF23LO_XHS_X450_S50_HyySbb.deriv.DAOD_PHYSLITE.e8531_a907_r14859_p6266
mc20_13TeV.802134.Py8EG_A14NNPDF23LO_XHS_X450_S50_HyySbb.deriv.DAOD_PHYSLITE.e8531_a907_r14860_p6266
mc20_13TeV.802134.Py8EG_A14NNPDF23LO_XHS_X450_S50_HyySbb.deriv.DAOD_PHYSLITE.e8531_a907_r14861_p6266
mc20_13TeV.802135.Py8EG_A14NNPDF23LO_XHS_X450_S70_HyySbb.deriv.DAOD_PHYSLITE.e8531_a907_r14859_p6266
mc20_13TeV.802135.Py8EG_A14NNPDF23LO_XHS_X450_S70_HyySbb.deriv.DAOD_PHYSLITE.e8531_a907_r14860_p6266
mc20_13TeV.802135.Py8EG_A14NNPDF23LO_XHS_X450_S70_HyySbb.deriv.DAOD_PHYSLITE.e8531_a907_r14861_p6266
mc20_13TeV.802137.Py8EG_A14NNPDF23LO_XHS_X475_S50_HyySbb.deriv.DAOD_PHYSLITE.e8531_a907_r14859_p6266
mc20_13TeV.802137.Py8EG_A14NNPDF23LO_XHS_X475_S50_HyySbb.deriv.DAOD_PHYSLITE.e8531_a907_r14860_p6266
mc20_13TeV.802137.Py8EG_A14NNPDF23LO_XHS_X475_S50_HyySbb.deriv.DAOD_PHYSLITE.e8531_a907_r14861_p6266
mc20_13TeV.802138.Py8EG_A14NNPDF23LO_XHS_X475_S70_HyySbb.deriv.DAOD_PHYSLITE.e8531_a907_r14859_p6266
mc20_13TeV.802138.Py8EG_A14NNPDF23LO_XHS_X475_S70_HyySbb.deriv.DAOD_PHYSLITE.e8531_a907_r14860_p6266
mc20_13TeV.802138.Py8EG_A14NNPDF23LO_XHS_X475_S70_HyySbb.deriv.DAOD_PHYSLITE.e8531_a907_r14861_p6266
mc20_13TeV.802139.Py8EG_A14NNPDF23LO_XHS_X500_S50_HyySbb.deriv.DAOD_PHYSLITE.e8531_a907_r14859_p6266
mc20_13TeV.802139.Py8EG_A14NNPDF23LO_XHS_X500_S50_HyySbb.deriv.DAOD_PHYSLITE.e8531_a907_r14860_p6266
mc20_13TeV.802139.Py8EG_A14NNPDF23LO_XHS_X500_S50_HyySbb.deriv.DAOD_PHYSLITE.e8531_a907_r14861_p6266
mc20_13TeV.802141.Py8EG_A14NNPDF23LO_XHS_X525_S50_HyySbb.deriv.DAOD_PHYSLITE.e8531_a907_r14859_p6266
mc20_13TeV.802141.Py8EG_A14NNPDF23LO_XHS_X525_S50_HyySbb.deriv.DAOD_PHYSLITE.e8531_a907_r14860_p6266
mc20_13TeV.802141.Py8EG_A14NNPDF23LO_XHS_X525_S50_HyySbb.deriv.DAOD_PHYSLITE.e8531_a907_r14861_p6266
mc20_13TeV.802142.Py8EG_A14NNPDF23LO_XHS_X525_S70_HyySbb.deriv.DAOD_PHYSLITE.e8531_a907_r14859_p6266
mc20_13TeV.802142.Py8EG_A14NNPDF23LO_XHS_X525_S70_HyySbb.deriv.DAOD_PHYSLITE.e8531_a907_r14860_p6266
mc20_13TeV.802142.Py8EG_A14NNPDF23LO_XHS_X525_S70_HyySbb.deriv.DAOD_PHYSLITE.e8531_a907_r14861_p6266
mc20_13TeV.802144.Py8EG_A14NNPDF23LO_XHS_X550_S50_HyySbb.deriv.DAOD_PHYSLITE.e8531_a907_r14859_p6266
mc20_13TeV.802144.Py8EG_A14NNPDF23LO_XHS_X550_S50_HyySbb.deriv.DAOD_PHYSLITE.e8531_a907_r14860_p6266
mc20_13TeV.802144.Py8EG_A14NNPDF23LO_XHS_X550_S50_HyySbb.deriv.DAOD_PHYSLITE.e8531_a907_r14861_p6266
mc20_13TeV.802145.Py8EG_A14NNPDF23LO_XHS_X550_S70_HyySbb.deriv.DAOD_PHYSLITE.e8531_a907_r14859_p6266
mc20_13TeV.802145.Py8EG_A14NNPDF23LO_XHS_X550_S70_HyySbb.deriv.DAOD_PHYSLITE.e8531_a907_r14860_p6266
mc20_13TeV.802145.Py8EG_A14NNPDF23LO_XHS_X550_S70_HyySbb.deriv.DAOD_PHYSLITE.e8531_a907_r14861_p6266
mc20_13TeV.802148.Py8EG_A14NNPDF23LO_XHS_X575_S70_HyySbb.deriv.DAOD_PHYSLITE.e8531_a907_r14859_p6266
mc20_13TeV.802148.Py8EG_A14NNPDF23LO_XHS_X575_S70_HyySbb.deriv.DAOD_PHYSLITE.e8531_a907_r14860_p6266
mc20_13TeV.802148.Py8EG_A14NNPDF23LO_XHS_X575_S70_HyySbb.deriv.DAOD_PHYSLITE.e8531_a907_r14861_p6266
mc20_13TeV.802151.Py8EG_A14NNPDF23LO_XHS_X650_S520_HyySbb.deriv.DAOD_PHYSLITE.e8531_a907_r14859_p6266
mc20_13TeV.802151.Py8EG_A14NNPDF23LO_XHS_X650_S520_HyySbb.deriv.DAOD_PHYSLITE.e8531_a907_r14860_p6266
mc20_13TeV.802151.Py8EG_A14NNPDF23LO_XHS_X650_S520_HyySbb.deriv.DAOD_PHYSLITE.e8531_a907_r14861_p6266
mc20_13TeV.802152.Py8EG_A14NNPDF23LO_XHS_X650_S70_HyySbb.deriv.DAOD_PHYSLITE.e8531_a907_r14859_p6266
mc20_13TeV.802152.Py8EG_A14NNPDF23LO_XHS_X650_S70_HyySbb.deriv.DAOD_PHYSLITE.e8531_a907_r14860_p6266
mc20_13TeV.802152.Py8EG_A14NNPDF23LO_XHS_X650_S70_HyySbb.deriv.DAOD_PHYSLITE.e8531_a907_r14861_p6266
mc20_13TeV.802154.Py8EG_A14NNPDF23LO_XHS_X700_S570_HyySbb.deriv.DAOD_PHYSLITE.e8531_a907_r14859_p6266
mc20_13TeV.802154.Py8EG_A14NNPDF23LO_XHS_X700_S570_HyySbb.deriv.DAOD_PHYSLITE.e8531_a907_r14860_p6266
mc20_13TeV.802154.Py8EG_A14NNPDF23LO_XHS_X700_S570_HyySbb.deriv.DAOD_PHYSLITE.e8531_a907_r14861_p6266
mc20_13TeV.802155.Py8EG_A14NNPDF23LO_XHS_X700_S70_HyySbb.deriv.DAOD_PHYSLITE.e8531_a907_r14859_p6266
mc20_13TeV.802155.Py8EG_A14NNPDF23LO_XHS_X700_S70_HyySbb.deriv.DAOD_PHYSLITE.e8531_a907_r14860_p6266
mc20_13TeV.802155.Py8EG_A14NNPDF23LO_XHS_X700_S70_HyySbb.deriv.DAOD_PHYSLITE.e8531_a907_r14861_p6266
mc20_13TeV.802160.Py8EG_A14NNPDF23LO_XHS_X950_S90_HyySbb.deriv.DAOD_PHYSLITE.e8531_a907_r14859_p6266
mc20_13TeV.802160.Py8EG_A14NNPDF23LO_XHS_X950_S90_HyySbb.deriv.DAOD_PHYSLITE.e8531_a907_r14860_p6266
mc20_13TeV.802160.Py8EG_A14NNPDF23LO_XHS_X950_S90_HyySbb.deriv.DAOD_PHYSLITE.e8531_a907_r14861_p6266
mc20_13TeV.802165.Py8EG_A14NNPDF23LO_XHS_X275_S50_HyySbb.deriv.DAOD_PHYSLITE.e8531_a907_r14859_p6266
mc20_13TeV.802165.Py8EG_A14NNPDF23LO_XHS_X275_S50_HyySbb.deriv.DAOD_PHYSLITE.e8531_a907_r14860_p6266
mc20_13TeV.802165.Py8EG_A14NNPDF23LO_XHS_X275_S50_HyySbb.deriv.DAOD_PHYSLITE.e8531_a907_r14861_p6266
mc20_13TeV.802166.Py8EG_A14NNPDF23LO_XHS_X275_S30_HyySbb.deriv.DAOD_PHYSLITE.e8531_a907_r14859_p6266
mc20_13TeV.802166.Py8EG_A14NNPDF23LO_XHS_X275_S30_HyySbb.deriv.DAOD_PHYSLITE.e8531_a907_r14860_p6266
mc20_13TeV.802166.Py8EG_A14NNPDF23LO_XHS_X275_S30_HyySbb.deriv.DAOD_PHYSLITE.e8531_a907_r14861_p6266