mc20_13TeV.525362.MGPy8EG_ssWWhjj_llvvbbjj_EW8_LO_klp1.deriv.DAOD_PHYSLITE.e8545_s3681_r13167_r13146_p6026
mc20_13TeV.525363.MGPy8EG_ssWWhjj_llvvbbjj_EW8_LO_klp2.deriv.DAOD_PHYSLITE.e8545_s3681_r13167_r13146_p6026
mc20_13TeV.525364.MGPy8EG_ssWWhjj_llvvbbjj_EW8_LO_klp5.deriv.DAOD_PHYSLITE.e8545_s3681_r13167_r13146_p6026
mc20_13TeV.525365.MGPy8EG_ssWWhjj_llvvbbjj_EW8_LO_klp10.deriv.DAOD_PHYSLITE.e8545_s3681_r13167_r13146_p6026
mc20_13TeV.525366.MGPy8EG_ssWWhjj_llvvbbjj_EW8_LO_klm5.deriv.DAOD_PHYSLITE.e8545_s3681_r13167_r13146_p6026
mc20_13TeV.525362.MGPy8EG_ssWWhjj_llvvbbjj_EW8_LO_klp1.deriv.DAOD_PHYSLITE.e8545_s3681_r13144_r13146_p6026
mc20_13TeV.525363.MGPy8EG_ssWWhjj_llvvbbjj_EW8_LO_klp2.deriv.DAOD_PHYSLITE.e8545_s3681_r13144_r13146_p6026
mc20_13TeV.525364.MGPy8EG_ssWWhjj_llvvbbjj_EW8_LO_klp5.deriv.DAOD_PHYSLITE.e8545_s3681_r13144_r13146_p6026
mc20_13TeV.525365.MGPy8EG_ssWWhjj_llvvbbjj_EW8_LO_klp10.deriv.DAOD_PHYSLITE.e8545_s3681_r13144_r13146_p6026
mc20_13TeV.525366.MGPy8EG_ssWWhjj_llvvbbjj_EW8_LO_klm5.deriv.DAOD_PHYSLITE.e8545_s3681_r13144_r13146_p6026
mc20_13TeV.525362.MGPy8EG_ssWWhjj_llvvbbjj_EW8_LO_klp1.deriv.DAOD_PHYSLITE.e8545_s3681_r13145_r13146_p6026
mc20_13TeV.525363.MGPy8EG_ssWWhjj_llvvbbjj_EW8_LO_klp2.deriv.DAOD_PHYSLITE.e8545_s3681_r13145_r13146_p6026
mc20_13TeV.525364.MGPy8EG_ssWWhjj_llvvbbjj_EW8_LO_klp5.deriv.DAOD_PHYSLITE.e8545_s3681_r13145_r13146_p6026
mc20_13TeV.525365.MGPy8EG_ssWWhjj_llvvbbjj_EW8_LO_klp10.deriv.DAOD_PHYSLITE.e8545_s3681_r13145_r13146_p6026
mc20_13TeV.525366.MGPy8EG_ssWWhjj_llvvbbjj_EW8_LO_klm5.deriv.DAOD_PHYSLITE.e8545_s3681_r13145_r13146_p6026
