#mc20_13TeV.500989.MGH7EG_LO_EW6_ssWWjj.deriv.DAOD_PHYS.e8102_s3681_r13144_p6026
#mc20_13TeV.500989.MGH7EG_LO_EW6_ssWWjj.deriv.DAOD_PHYS.e8102_s3681_r13145_p6026
mc20_13TeV.500989.MGH7EG_LO_EW6_ssWWjj.deriv.DAOD_PHYS.e8102_s3681_r13167_p6026

#mc20_13TeV.500991.MGH7EG_LO_INT_ssWWjj.deriv.DAOD_PHYS.e8102_s3681_r13144_p6026 
#mc20_13TeV.500991.MGH7EG_LO_INT_ssWWjj.deriv.DAOD_PHYS.e8102_s3681_r13145_p6026
mc20_13TeV.500991.MGH7EG_LO_INT_ssWWjj.deriv.DAOD_PHYS.e8102_s3681_r13167_p6026

#mc20_13TeV.500990.MGH7EG_LO_EW4_ssWWjj.deriv.DAOD_PHYS.e8102_s3681_r13144_p6026
#mc20_13TeV.500990.MGH7EG_LO_EW4_ssWWjj.deriv.DAOD_PHYS.e8102_s3681_r13145_p6026
mc20_13TeV.500990.MGH7EG_LO_EW4_ssWWjj.deriv.DAOD_PHYS.e8102_s3681_r13167_p6026
