mc23_13p6TeV.701000.Sh_2214_lllljj.deriv.DAOD_PHYS.e8543_s4162_r14622_p6266
mc23_13p6TeV.701040.Sh_2214_llll.deriv.DAOD_PHYS.e8543_s4162_r14622_p6266
mc23_13p6TeV.701085.Sh_2214_ZqqZll.deriv.DAOD_PHYS.e8543_s4162_r14622_p6266
