mc20_13TeV.700773.Sh_2214_enugamma.deriv.DAOD_PHYS.e8547_s3797_r13144_p6266
mc20_13TeV.700773.Sh_2214_enugamma.deriv.DAOD_PHYS.e8547_s3797_r13145_p6266
mc20_13TeV.700773.Sh_2214_enugamma.deriv.DAOD_PHYS.e8547_s3797_r13167_p6266

mc20_13TeV.700774.Sh_2214_munugamma.deriv.DAOD_PHYS.e8547_s3797_r13144_p6266
mc20_13TeV.700774.Sh_2214_munugamma.deriv.DAOD_PHYS.e8547_s3797_r13145_p6266
mc20_13TeV.700774.Sh_2214_munugamma.deriv.DAOD_PHYS.e8547_s3797_r13167_p6266

mc20_13TeV.700775.Sh_2214_taunugamma.deriv.DAOD_PHYS.e8547_s3797_r13144_p6266
mc20_13TeV.700775.Sh_2214_taunugamma.deriv.DAOD_PHYS.e8547_s3797_r13145_p6266
mc20_13TeV.700775.Sh_2214_taunugamma.deriv.DAOD_PHYS.e8547_s3797_r13167_p6266

# missing mc20e
# mc20_13TeV.701170.Sh_2214_lvgammajj.deriv.DAOD_PHYS.e8547_s3797_r13144_p6266
# mc20_13TeV.701170.Sh_2214_lvgammajj.deriv.DAOD_PHYS.e8547_s3797_r13167_p6266

mc20_13TeV.700770.Sh_2214_eegamma.deriv.DAOD_PHYS.e8547_s3797_r13144_p6266
mc20_13TeV.700770.Sh_2214_eegamma.deriv.DAOD_PHYS.e8547_s3797_r13145_p6266
mc20_13TeV.700770.Sh_2214_eegamma.deriv.DAOD_PHYS.e8547_s3797_r13167_p6266

mc20_13TeV.700771.Sh_2214_mumugamma.deriv.DAOD_PHYS.e8547_s3797_r13144_p6266
mc20_13TeV.700771.Sh_2214_mumugamma.deriv.DAOD_PHYS.e8547_s3797_r13145_p6266
mc20_13TeV.700771.Sh_2214_mumugamma.deriv.DAOD_PHYS.e8547_s3797_r13167_p6266

mc20_13TeV.700772.Sh_2214_tautaugamma.deriv.DAOD_PHYS.e8547_s3797_r13144_p6266
mc20_13TeV.700772.Sh_2214_tautaugamma.deriv.DAOD_PHYS.e8547_s3797_r13145_p6266
mc20_13TeV.700772.Sh_2214_tautaugamma.deriv.DAOD_PHYS.e8547_s3797_r13167_p6266

mc20_13TeV.700776.Sh_2214_nunugamma.deriv.DAOD_PHYS.e8547_s3797_r13144_p6266
mc20_13TeV.700776.Sh_2214_nunugamma.deriv.DAOD_PHYS.e8547_s3797_r13145_p6266
mc20_13TeV.700776.Sh_2214_nunugamma.deriv.DAOD_PHYS.e8547_s3797_r13167_p6266

# missing mc20e
# mc20_13TeV.701165.Sh_2214_llgammajj.deriv.DAOD_PHYS.e8547_s3797_r13144_p6266
# mc20_13TeV.701165.Sh_2214_llgammajj.deriv.DAOD_PHYS.e8547_s3797_r13167_p6266