mc23_13p6TeV.603331.PhPy8EG_A14_WmH125_lvbb_VpT.deriv.DAOD_PHYS.e8544_s4159_r15224_p6026
mc23_13p6TeV.603331.PhPy8EG_A14_WmH125_lvbb_VpT.deriv.DAOD_PHYS.e8544_s4162_r14622_p6026

mc23_13p6TeV.603332.PhPy8EG_A14_WpH125_lvbb_VpT.deriv.DAOD_PHYS.e8544_s4159_r15224_p6026
mc23_13p6TeV.603332.PhPy8EG_A14_WpH125_lvbb_VpT.deriv.DAOD_PHYS.e8544_s4162_r14622_p6026

mc23_13p6TeV.603333.PhPy8EG_A14_qqZllH125bb_VpT.deriv.DAOD_PHYS.e8544_s4159_r15224_p6026
mc23_13p6TeV.603333.PhPy8EG_A14_qqZllH125bb_VpT.deriv.DAOD_PHYS.e8544_s4162_r14622_p6026

mc23_13p6TeV.603335.PhPy8EG_A14_ggZllH125bb.deriv.DAOD_PHYS.e8544_s4159_r15224_p6026
mc23_13p6TeV.603335.PhPy8EG_A14_ggZllH125bb.deriv.DAOD_PHYS.e8544_s4162_r14622_p6026

mc23_13p6TeV.603414.PhPy8EG_NNPDF23_A14_ggH125_NNLOPS_tautauh30h20.deriv.DAOD_PHYS.e8559_s4159_r15224_p6026
mc23_13p6TeV.603414.PhPy8EG_NNPDF23_A14_ggH125_NNLOPS_tautauh30h20.deriv.DAOD_PHYS.e8559_s4162_r14622_p6026

mc23_13p6TeV.603415.PhPy8EG_NNPDF23_A14_ggH125_NNLOPS_tautaulp15hm20.deriv.DAOD_PHYS.e8559_s4159_r15224_p6026
mc23_13p6TeV.603415.PhPy8EG_NNPDF23_A14_ggH125_NNLOPS_tautaulp15hm20.deriv.DAOD_PHYS.e8559_s4162_r14622_p6026

mc23_13p6TeV.603416.PhPy8EG_NNPDF23_A14_ggH125_NNLOPS_tautaulm15hp20.deriv.DAOD_PHYS.e8559_s4159_r15224_p6026
mc23_13p6TeV.603416.PhPy8EG_NNPDF23_A14_ggH125_NNLOPS_tautaulm15hp20.deriv.DAOD_PHYS.e8559_s4162_r14622_p6026

mc23_13p6TeV.603417.PhPy8EG_NNPDF23_A14_ggH125_NNLOPS_tautaul13l7.deriv.DAOD_PHYS.e8559_s4159_r15224_p6026
mc23_13p6TeV.603417.PhPy8EG_NNPDF23_A14_ggH125_NNLOPS_tautaul13l7.deriv.DAOD_PHYS.e8559_s4162_r14622_p6026

mc23_13p6TeV.603422.PhPy8EG_NNPDF23_A14_VBFH125_tautauh30h20.deriv.DAOD_PHYS.e8559_s4159_r15224_p6026
mc23_13p6TeV.603422.PhPy8EG_NNPDF23_A14_VBFH125_tautauh30h20.deriv.DAOD_PHYS.e8559_s4162_r14622_p6026

mc23_13p6TeV.603423.PhPy8EG_NNPDF23_A14_VBFH125_tautaulp15hm20.deriv.DAOD_PHYS.e8559_s4159_r15224_p6026
mc23_13p6TeV.603423.PhPy8EG_NNPDF23_A14_VBFH125_tautaulp15hm20.deriv.DAOD_PHYS.e8559_s4162_r14622_p6026

mc23_13p6TeV.603424.PhPy8EG_NNPDF23_A14_VBFH125_tautaulm15hp20.deriv.DAOD_PHYS.e8559_s4159_r15224_p6026
mc23_13p6TeV.603424.PhPy8EG_NNPDF23_A14_VBFH125_tautaulm15hp20.deriv.DAOD_PHYS.e8559_s4162_r14622_p6026

mc23_13p6TeV.603425.PhPy8EG_NNPDF23_A14_VBFH125_tautaul13l7.deriv.DAOD_PHYS.e8559_s4159_r15224_p6026
mc23_13p6TeV.603425.PhPy8EG_NNPDF23_A14_VBFH125_tautaul13l7.deriv.DAOD_PHYS.e8559_s4162_r14622_p6026

mc23_13p6TeV.603427.PhPy8EG_NNPDF23_A14_WpH125J_Winc_tautau.deriv.DAOD_PHYS.e8559_s4159_r15224_p6026

mc23_13p6TeV.603426.PhPy8EG_NNPDF23_A14_WmH125J_Winc_tautau.deriv.DAOD_PHYS.e8559_s4159_r15224_p6026

mc23_13p6TeV.603428.PhPy8EG_NNPDF23_A14_ZH125J_Zinc_tautau.deriv.DAOD_PHYS.e8559_s4162_r14622_p6026

mc23_13p6TeV.603418.PhPy8EG_NNPDF23_A14_ggZH125_Zinc_tautau.deriv.DAOD_PHYS.e8559_s4159_r15224_p6026
mc23_13p6TeV.603418.PhPy8EG_NNPDF23_A14_ggZH125_Zinc_tautau.deriv.DAOD_PHYS.e8559_s4162_r14622_p6026

mc23_13p6TeV.602637.PhPy8EG_PDF4LHC21_ttH125_dilep.deriv.DAOD_PHYS.e8549_s4159_r15224_p6026
mc23_13p6TeV.602637.PhPy8EG_PDF4LHC21_ttH125_dilep.deriv.DAOD_PHYS.e8549_s4162_r14622_p6026

mc23_13p6TeV.602638.PhPy8EG_PDF4LHC21_ttH125_semilep.deriv.DAOD_PHYS.e8549_s4159_r15224_p6026
mc23_13p6TeV.602638.PhPy8EG_PDF4LHC21_ttH125_semilep.deriv.DAOD_PHYS.e8549_s4162_r14622_p6026

mc23_13p6TeV.603419.PhPy8EG_NNPDF23_A14_ttH125_allhad_tautau.deriv.DAOD_PHYS.e8559_s4159_r15224_p6026
mc23_13p6TeV.603419.PhPy8EG_NNPDF23_A14_ttH125_allhad_tautau.deriv.DAOD_PHYS.e8559_s4162_r14622_p6026

mc23_13p6TeV.603420.PhPy8EG_NNPDF23_A14_ttH125_dilep_tautau.deriv.DAOD_PHYS.e8559_s4159_r15224_p6026
mc23_13p6TeV.603420.PhPy8EG_NNPDF23_A14_ttH125_dilep_tautau.deriv.DAOD_PHYS.e8559_s4162_r14622_p6026

mc23_13p6TeV.603421.PhPy8EG_NNPDF23_A14_ttH125_semilep_tautau.deriv.DAOD_PHYS.e8559_s4159_r15224_p6026
mc23_13p6TeV.603421.PhPy8EG_NNPDF23_A14_ttH125_semilep_tautau.deriv.DAOD_PHYS.e8559_s4162_r14622_p6026

mc23_13p6TeV.601606.PhPy8EG_A14_qqZhadH125tautau_VpT.deriv.DAOD_PHYS.e8537_s4159_r15224_p6026
mc23_13p6TeV.601606.PhPy8EG_A14_qqZhadH125tautau_VpT.deriv.DAOD_PHYS.e8537_s4162_r14622_p6026
